{
  "code": 200,
  "status": "success",
  "current_page": 1,
  "data": [
    {
      "event_id": 140844,
      "event_title": "2020 Malmö ETU Sprint Triathlon European Championships",
      "event_slug": "2020_malmoe_etu_sprint_triathlon_european_championships",
      "event_edit_date": "2020-06-12T06:15:32+00:00",
      "event_venue": "Malmö",
      "event_country": "Sweden",
      "event_latitude": 55.60498,
      "event_longitude": 13.00382,
      "event_date": "2020-08-07",
      "event_finish_date": "2020-08-09",
      "event_country_isoa2": "SE",
      "event_country_noc": "SWE",
      "event_region_id": 10,
      "event_country_id": 275,
      "event_region_name": "Europe",
      "event_website": "https://www.malmo2020.com/",
      "event_status": "Cancelled",
      "event_categories": [
        {
          "cat_name": "Continental Championship",
          "cat_id": 340,
          "cat_parent_id": null
        },
        {
          "cat_name": "Age-Group Races",
          "cat_id": 483,
          "cat_parent_id": null
        }
      ],
      "event_specifications": [
        {
          "cat_name": "Triathlon",
          "cat_id": 357,
          "cat_parent_id": null
        },
        {
          "cat_name": "Sprint",
          "cat_id": 376,
          "cat_parent_id": 357
        },
        {
          "cat_name": "Paratriathlon",
          "cat_id": 381,
          "cat_parent_id": 357
        }
      ],
      "event_flag": "https://triathlon-images.imgix.net/images/icons/se.png",
      "event_listing": "https://www.triathlon.org/events/event/2020_malmoe_etu_sprint_triathlon_european_championships",
      "event_api_listing": "https://api.triathlon.org/v1//events/140844",
      "timestamp": 1596758400,
      "sport": [
        {
          "cat_name": "Triathlon",
          "cat_id": 357,
          "cat_parent_id": null
        }
      ],
      "specification": [
        {
          "cat_name": "Sprint",
          "cat_id": 376,
          "cat_parent_id": 357
        },
        {
          "cat_name": "Paratriathlon",
          "cat_id": 381,
          "cat_parent_id": 357
        }
      ],
      "federation_event": false,
      "web_gallery": false,
      "hr_gallery": false,
      "has_ag_prog": true,
      "event_redirect": false,
      "media_centre": true,
      "event_on_ott": false,
      "event_postponed_to_2021": false,
      "event_postponed": false,
      "event_cancelled": true,
      "event_new_date": false,
      "hide_from_events": true,
      "hide_from_results": false,
      "_highlightResult": {
        "event_title": {
          "value": "2020 Malmö ETU Sprint Triathlon European Championships",
          "matchLevel": "none",
          "matchedWords": []
        },
        "event_venue": {
          "value": "Malmö",
          "matchLevel": "none",
          "matchedWords": []
        },
        "event_country": {
          "value": "Sweden",
          "matchLevel": "none",
          "matchedWords": []
        },
        "event_categories": [
          {
            "cat_name": {
              "value": "Continental Championship",
              "matchLevel": "none",
              "matchedWords": []
            }
          },
          {
            "cat_name": {
              "value": "Age-Group Races",
              "matchLevel": "none",
              "matchedWords": []
            }
          }
        ],
        "sport": [
          {
            "cat_name": {
              "value": "Triathlon",
              "matchLevel": "none",
              "matchedWords": []
            }
          }
        ],
        "specification": [
          {
            "cat_name": {
              "value": "Sprint",
              "matchLevel": "none",
              "matchedWords": []
            }
          },
          {
            "cat_name": {
              "value": "Paratriathlon",
              "matchLevel": "none",
              "matchedWords": []
            }
          }
        ]
      }
    },
    {
      "event_id": 141360,
      "event_title": "2020 Daqing ASTC Triathlon Asian Cup",
      "event_slug": "2020_daqing_astc_triathlon_asian_cup",
      "event_edit_date": "2020-07-13T06:58:41+00:00",
      "event_venue": "Daqing",
      "event_country": "China",
      "event_latitude": 46.58931,
      "event_longitude": 125.10378,
      "event_date": "2020-08-08",
      "event_finish_date": "2020-08-08",
      "event_country_isoa2": "CN",
      "event_country_noc": "CHN",
      "event_region_id": 13,
      "event_country_id": 141,
      "event_region_name": "Asia",
      "event_status": "Cancelled",
      "event_categories": [
        {
          "cat_name": "Continental Cup",
          "cat_id": 341,
          "cat_parent_id": null
        }
      ],
      "event_specifications": [
        {
          "cat_name": "Triathlon",
          "cat_id": 357,
          "cat_parent_id": null
        },
        {
          "cat_name": "Standard",
          "cat_id": 377,
          "cat_parent_id": 357
        }
      ],
      "event_flag": "https://triathlon-images.imgix.net/images/icons/cn.png",
      "event_listing": "https://www.triathlon.org/events/event/2020_daqing_astc_triathlon_asian_cup",
      "event_api_listing": "https://api.triathlon.org/v1//events/141360",
      "timestamp": 1596844800,
      "sport": [
        {
          "cat_name": "Triathlon",
          "cat_id": 357,
          "cat_parent_id": null
        }
      ],
      "specification": [
        {
          "cat_name": "Standard",
          "cat_id": 377,
          "cat_parent_id": 357
        }
      ],
      "federation_event": false,
      "web_gallery": false,
      "hr_gallery": false,
      "has_ag_prog": false,
      "event_redirect": false,
      "media_centre": true,
      "event_on_ott": false,
      "event_postponed_to_2021": false,
      "event_postponed": false,
      "event_cancelled": true,
      "event_new_date": false,
      "hide_from_events": true,
      "hide_from_results": false,
      "_highlightResult": {
        "event_title": {
          "value": "2020 Daqing ASTC Triathlon Asian Cup",
          "matchLevel": "none",
          "matchedWords": []
        },
        "event_venue": {
          "value": "Daqing",
          "matchLevel": "none",
          "matchedWords": []
        },
        "event_country": {
          "value": "China",
          "matchLevel": "none",
          "matchedWords": []
        },
        "event_categories": [
          {
            "cat_name": {
              "value": "Continental Cup",
              "matchLevel": "none",
              "matchedWords": []
            }
          }
        ],
        "sport": [
          {
            "cat_name": {
              "value": "Triathlon",
              "matchLevel": "none",
              "matchedWords": []
            }
          }
        ],
        "specification": [
          {
            "cat_name": {
              "value": "Standard",
              "matchLevel": "none",
              "matchedWords": []
            }
          }
        ]
      }
    },
    {
      "event_id": 140934,
      "event_title": "2020 Balıkesir ETU Triathlon Junior European Cup",
      "event_slug": "2020_baliksir_etu_triathlon_junior_european_cup",
      "event_edit_date": "2020-11-09T08:01:06+00:00",
      "event_venue": "Balıkesir ",
      "event_country": "Turkey",
      "event_latitude": 39.65391,
      "event_longitude": 27.88471,
      "event_date": "2020-08-15",
      "event_finish_date": "2020-08-15",
      "event_country_isoa2": "TR",
      "event_country_noc": "TUR",
      "event_region_id": 10,
      "event_country_id": 287,
      "event_region_name": "Europe",
      "event_status": "Cancelled",
      "event_categories": [
        {
          "cat_name": "Junior Continental Cup",
          "cat_id": 342,
          "cat_parent_id": null
        }
      ],
      "event_specifications": [
        {
          "cat_name": "Triathlon",
          "cat_id": 357,
          "cat_parent_id": null
        },
        {
          "cat_name": "Sprint",
          "cat_id": 376,
          "cat_parent_id": 357
        }
      ],
      "event_flag": "https://triathlon-images.imgix.net/images/icons/tr.png",
      "event_listing": "https://www.triathlon.org/events/event/2020_baliksir_etu_triathlon_junior_european_cup",
      "event_api_listing": "https://api.triathlon.org/v1//events/140934",
      "timestamp": 1597449600,
      "sport": [
        {
          "cat_name": "Triathlon",
          "cat_id": 357,
          "cat_parent_id": null
        }
      ],
      "specification": [
        {
          "cat_name": "Sprint",
          "cat_id": 376,
          "cat_parent_id": 357
        }
      ],
      "federation_event": false,
      "web_gallery": false,
      "hr_gallery": false,
      "has_ag_prog": false,
      "event_redirect": false,
      "media_centre": true,
      "event_on_ott": false,
      "event_postponed_to_2021": false,
      "event_postponed": false,
      "event_cancelled": true,
      "event_new_date": false,
      "hide_from_events": true,
      "hide_from_results": false,
      "_highlightResult": {
        "event_title": {
          "value": "2020 Balıkesir ETU Triathlon Junior European Cup",
          "matchLevel": "none",
          "matchedWords": []
        },
        "event_venue": {
          "value": "Balıkesir ",
          "matchLevel": "none",
          "matchedWords": []
        },
        "event_country": {
          "value": "Turkey",
          "matchLevel": "none",
          "matchedWords": []
        },
        "event_categories": [
          {
            "cat_name": {
              "value": "Junior Continental Cup",
              "matchLevel": "none",
              "matchedWords": []
            }
          }
        ],
        "sport": [
          {
            "cat_name": {
              "value": "Triathlon",
              "matchLevel": "none",
              "matchedWords": []
            }
          }
        ],
        "specification": [
          {
            "cat_name": {
              "value": "Sprint",
              "matchLevel": "none",
              "matchedWords": []
            }
          }
        ]
      }
    }
  ],
  "first_page_url": "https://api.triathlon.org/v1/search?per_page=3&collection=events&page=1",
  "from": 1,
  "last_page": 99,
  "last_page_url": "https://api.triathlon.org/v1/search?per_page=3&collection=events&page=99",
  "next_page_url": "https://api.triathlon.org/v1/search?per_page=3&collection=events&page=2",
  "path": "https://api.triathlon.org/v1/search",
  "per_page": "3",
  "prev_page_url": null,
  "to": 3,
  "total": 296
}